…
max_x = max(subset(df, select = paste(continuous_predictor_name)))
min_x = min(subset(df, select = paste(continuous_predictor_name)))

# Insert code to find the unique categorical variable options

my_formula1 <- paste(continuous_predictor_name," = seq(from = ",min_x,", to = ",max_x,", length = 100)",sep="")

# Just need to solve the problem of how to get the umique categories then I'm done

unique_categories <- unique(select(df,eval((parse(text = paste(continuous_predictor_name))))))

tbl_df(unique_categories)

## # A tibble: 23 x 1
##    tooth_p1_length
##              <dbl>
##  1           33.18
##  2           35.88
##  3           35.61
##  4           32.06
##  5           35.39
##  6           32.34
##  7           32.25
##  8           30.35
##  9           34.23
## 10           35.04
## # ... with 13 more rows
…
